
./src/risc_v/risc-v-sandbox --input tezt/tests/riscv-tests/generated/rv64mzicbo-p-zero --posix
thread 'main' panicked at sandbox/src/main.rs:131:25:
Exception IllegalInstruction(4235279) at 0x800001a4: Invisible
note: run with `RUST_BACKTRACE=1` environment variable to display a backtrace
rv64mzicbo-p-zero: fail
