
./octez-client --protocol PtParisAeco71sYvYgfnVPb4rRJe6zgzYRDS5U8t5ednSRPUFN5 --mode mockup --no-base-dir-warnings run script michelson_test_scripts/opcodes/big_map_mem_string.tz on storage '(Pair {} None)' and input '"bar"' --level 1 --trace-stack
storage
  (Pair 4 (Some False))
emitted operations
  
big_map diff
  New map(4) of type (big_map string nat)
trace
  - location: 12 (just consumed gas: 9.689)
    [ (Pair "bar" {} None) ]
  - location: 12 (just consumed gas: 0.010)
    [ "bar"
      (Pair {} None) ]
  - location: 13 (just consumed gas: 0.010)
    [ (Pair {} None) ]
  - location: 15 (just consumed gas: 0.010)
    [ {} ]
  - location: 16 (just consumed gas: 0.010)
    [ {}
      {} ]
  - location: 13 (just consumed gas: 0.035)
    [ "bar"
      {}
      {} ]
  - location: 17 (just consumed gas: 0.734)
    [ False
      {} ]
  - location: 18 (just consumed gas: 0.010)
    [ (Some False)
      {} ]
  - location: 19 (just consumed gas: 0.010)
    [ {}
      (Some False) ]
  - location: 20 (just consumed gas: 0.010)
    [ (Pair {} (Some False)) ]
  - location: 21 (just consumed gas: 0.010)
    [ {}
      (Pair {} (Some False)) ]
  - location: 23 (just consumed gas: 0.010)
    [ (Pair {} {} (Some False)) ]

