
./octez-client --protocol PtParisAeco71sYvYgfnVPb4rRJe6zgzYRDS5U8t5ednSRPUFN5 --mode mockup --no-base-dir-warnings run script michelson_test_scripts/opcodes/shifts.tz on storage None and input '(Right (Pair 1 2))' --level 1 --trace-stack
storage
  (Some 0)
emitted operations
  
big_map diff
  
trace
  - location: 14 (just consumed gas: 8.673)
    [ (Pair (Right (Pair 1 2)) None) ]
  - location: 14 (just consumed gas: 0.010)
    [ (Right (Pair 1 2)) ]
  - location: 15 (just consumed gas: 0.010)
    [ (Pair 1 2) ]
  - location: 20 (just consumed gas: 0.010)
    [ 1
      2 ]
  - location: 21 (just consumed gas: 0.045)
    [ 0 ]
  - location: 15 (just consumed gas: 0.025)
    [ 0 ]
  - location: 22 (just consumed gas: 0.010)
    [ (Some 0) ]
  - location: 23 (just consumed gas: 0.010)
    [ {}
      (Some 0) ]
  - location: 25 (just consumed gas: 0.010)
    [ (Pair {} (Some 0)) ]

