
./octez-client --protocol PtParisAeco71sYvYgfnVPb4rRJe6zgzYRDS5U8t5ednSRPUFN5 --mode mockup --no-base-dir-warnings run script michelson_test_scripts/opcodes/xor.tz on storage None and input 'Right (Pair 1 0)' --level 1 --trace-stack
storage
  (Some (Right 1))
emitted operations
  
big_map diff
  
trace
  - location: 16 (just consumed gas: 10.744)
    [ (Pair (Right (Pair 1 0)) None) ]
  - location: 16 (just consumed gas: 0.010)
    [ (Right (Pair 1 0)) ]
  - location: 17 (just consumed gas: 0.010)
    [ (Pair 1 0) ]
  - location: 24 (just consumed gas: 0.010)
    [ 1
      0 ]
  - location: 25 (just consumed gas: 0.035)
    [ 1 ]
  - location: 26 (just consumed gas: 0.010)
    [ (Right 1) ]
  - location: 17 (just consumed gas: 0.025)
    [ (Right 1) ]
  - location: 28 (just consumed gas: 0.010)
    [ (Some (Right 1)) ]
  - location: 29 (just consumed gas: 0.010)
    [ {}
      (Some (Right 1)) ]
  - location: 31 (just consumed gas: 0.010)
    [ (Pair {} (Some (Right 1))) ]

