
./octez-client --protocol PtParisAeco71sYvYgfnVPb4rRJe6zgzYRDS5U8t5ednSRPUFN5 --mode mockup --no-base-dir-warnings run script michelson_test_scripts/opcodes/chain_id_store.tz on storage '(Some 0x7a06a770)' and input Unit --level 1 --trace-stack
storage
  (Some "NetXynUjJNZm7wi")
emitted operations
  
big_map diff
  
trace
  - location: 8 (just consumed gas: 5.057)
    [ (Pair Unit (Some "NetXdQprcVkpaWU")) ]
  - location: 8 (just consumed gas: 0.010)
    [  ]
  - location: 9 (just consumed gas: 0.015)
    [ "NetXynUjJNZm7wi" ]
  - location: 10 (just consumed gas: 0.010)
    [ (Some "NetXynUjJNZm7wi") ]
  - location: 11 (just consumed gas: 0.010)
    [ {}
      (Some "NetXynUjJNZm7wi") ]
  - location: 13 (just consumed gas: 0.010)
    [ (Pair {} (Some "NetXynUjJNZm7wi")) ]

